{
    "id": "org.kde.kalk",
    "runtime": "org.kde.Platform",
    "runtime-version": "5.15-21.08",
    "sdk": "org.kde.Sdk",
    "command": "kalk",
    "rename-icon": "kalk",
    "tags": ["nightly"],
    "desktop-file-name-suffix": " (Nightly)",
    "finish-args": [
        "--share=ipc",
        "--socket=wayland",
        "--socket=fallback-x11",
        "--device=dri"
    ],
    "modules": [
        {
            "name": "mpfr",
            "sources": [ 
                {
                    "type": "archive",
                    "url": "https://www.mpfr.org/mpfr-4.1.0/mpfr-4.1.0.tar.xz",
                    "sha256": "0c98a3f1732ff6ca4ea690552079da9c597872d30e96ec28414ee23c95558a7f",
                    "x-checker-data": {
                        "type": "anitya",
                        "project-id": 2019,
                        "stable-only": true,
                        "url-template": "https://www.mpfr.org/mpfr-$version/mpfr-$version.tar.xz"
                    }
                } 
            ]
        },
        {
            "name": "kf5feedback",
            "buildsystem": "cmake-ninja",
            "sources": [
                {
                    "type": "git",
                    "url": "https://invent.kde.org/jbbgameich/qtfeedback/",
                    "commit": "a2fe291197c3a8912dbd1bc0a870c081c446e317"
                }
            ]
        },
        {
            "name": "kalk",
            "buildsystem": "cmake-ninja",
            "builddir": true,
            "config-opts": ["-DBUILD_TESTING=OFF", "-DCMAKE_BUILD_TYPE=Release", "-DQt5Feedback_DIR=/app/lib/cmake/Qt5Feedback"],
            "sources": [ 
                { 
                    "type": "git", 
                    "url": "https://invent.kde.org/plasma-mobile/kalk.git", 
                    "branch": "master"
                } 
            ]
        }
    ]
}
