{
    "id": "org.kde.krename",
    "branch": "master",
    "runtime": "org.kde.Platform",
    "runtime-version": "5.15-21.08",
    "sdk": "org.kde.Sdk",
    "command": "krename",
    "tags": ["nightly"],
    "desktop-file-name-suffix": " (Nightly)",
    "finish-args": ["--share=ipc", "--socket=x11", "--socket=wayland", "--filesystem=host" ],

    "modules": [
        {
            "name": "libexif",
            "buildsystem": "autotools",
            "sources": [
                {
                    "type": "git",
                    "url": "https://github.com/libexif/libexif.git",
                    "tag": "v0.6.24",
                    "x-checker-data": {
                        "type": "git",
                        "tag-pattern": "^v([\\d.]+)$"
                    },
                    "commit": "5bc74ae756f01bba42e73281fad67053bc7ac5f7"
                }
            ]
        },
        {
            "name": "taglib",
            "config-opts": [ "-DBUILD_SHARED_LIBS=ON" ],
            "buildsystem": "cmake-ninja",
            "sources": [
                {
                    "type": "archive",
                    "url": "https://taglib.github.io/releases/taglib-1.12.tar.gz",
                    "sha256": "7fccd07669a523b07a15bd24c8da1bbb92206cb19e9366c3692af3d79253b703",
                    "x-checker-data": {
                        "type": "anitya",
                        "project-id": 1982,
                        "stable-only": true,
                        "url-template": "https://taglib.github.io/releases/taglib-$version.tar.gz"
                    }
                }
            ]
        },
        {
            "name": "kjs",
            "config-opts": [ "-DENABLE_TESTING=OFF" ],
            "buildsystem": "cmake-ninja",
            "sources": [
                {
                    "type": "git",
                    "url": "https://commits.kde.org/kjs.git",
                    "tag": "v5.92.0",
                    "x-checker-data": {
                        "type": "git",
                        "tag-pattern": "^v([\\d.]+)$"
                    },
                    "commit": "ff72aaa777fd7cd2df19db699e02b045c07efecb"
                }
            ]
        },
        {
            "name": "krename",
            "buildsystem": "cmake-ninja",
            "sources": [
                { "type": "git", "url": "https://commits.kde.org/krename.git" }
            ]
        }
    ]
}
