{
    "id": "org.kde.skanpage",
    "branch": "master",
    "runtime": "org.kde.Platform",
    "runtime-version": "5.15-21.08",
    "sdk": "org.kde.Sdk",
    "command": "skanpage",
    "tags": ["nightly"],
    "desktop-file-name-suffix": " (Nightly)",
    "finish-args": ["--share=ipc", "--socket=x11", "--socket=wayland", "--device=all" ],
    "separate-locales": false,

    "modules": [
        "ksane-dependencies.json",
        {
            "name": "skanpage",
            "buildsystem": "cmake-ninja",
            "builddir": true,
            "sources": [ { "type": "git", "url": "https://invent.kde.org/utilities/skanpage.git" } ]
        }
    ]
}
