{
    "id": "org.kde.plasmashell",
    "branch": "master",
    "runtime": "org.kde.Platform",
    "runtime-version": "5.15-21.08",
    "sdk": "org.kde.Sdk",
    "command": "plasmashell",
    "rename-desktop-file": "org.kde.kfontview.desktop",
    "tags": ["nightly"],
    "desktop-file-name-suffix": " (Nightly)",
    "finish-args": ["--share=ipc", "--socket=x11", "--socket=wayland", "--filesystem=host" ],
    
    "modules": [
        "boost.json",
        {
            "name": "kactivities",
            "buildsystem": "cmake-ninja",
            "builddir": true,
            "sources": [ { "type": "git", "url": "https://invent.kde.org/kde/kactivities.git", "branch": "master" } ]
        },
        {
            "name": "plasma-framework",
            "buildsystem": "cmake-ninja",
            "builddir": true,
            "sources": [ { "type": "git", "url": "https://invent.kde.org/kde/plasma-framework.git", "branch": "master" } ]
        },
        {
            "name": "krunner",
            "buildsystem": "cmake-ninja",
            "builddir": true,
            "sources": [ { "type": "git", "url": "https://invent.kde.org/kde/krunner.git", "branch": "master" } ]
        },
        {
            "name": "kjs",
            "buildsystem": "cmake-ninja",
            "builddir": true,
            "sources": [ { "type": "git", "url": "https://invent.kde.org/frameworks/kjs.git", "branch": "master" } ]
        },
        {
            "name": "kjsembed",
            "buildsystem": "cmake-ninja",
            "builddir": true,
            "sources": [ { "type": "git", "url": "https://invent.kde.org/kde/kjsembed.git", "branch": "master" } ]
        },
        {
            "name": "kdesu",
            "buildsystem": "cmake-ninja",
            "builddir": true,
            "sources": [ { "type": "git", "url": "https://invent.kde.org/frameworks/kdesu.git", "branch": "master" } ]
        },
        {
            "name": "libksysguard",
            "buildsystem": "cmake-ninja",
            "builddir": true,
            "sources": [ { "type": "git", "url": "https://invent.kde.org/kde/libksysguard.git", "branch": "master" } ]
        },
        {
            "name": "ksysguard",
            "buildsystem": "cmake-ninja",
            "builddir": true,
            "sources": [ { "type": "git", "url": "https://invent.kde.org/kde/ksysguard.git", "branch": "master" } ]
        },
        {
            "name": "kdelibs4support",
            "buildsystem": "cmake-ninja",
            "builddir": true,
            "sources": [ { "type": "git", "url": "https://invent.kde.org/frameworks/kdelibs4support.git", "branch": "master" } ]
        },
        {
            "config-opts": [ "-DENABLE_TESTING=OFF" ],
            "name": "kfilemetadata",
            "buildsystem": "cmake-ninja",
            "sources": [ { "type": "git", "url": "https://invent.kde.org/kde/kfilemetadata.git", "tag": "v5.85.0" } ]
        },
        {
            "name": "lmdb",
            "sources": [ { "type": "git", "url": "git://github.com/LMDB/lmdb.git", "tag": "LMDB_0.9.29"}],
            "no-autogen": true,
            "make-install-args": ["prefix=/app"],
            "subdir" : "libraries/liblmdb"
        },
        {
            "config-opts": ["-DENABLE_TESTING=OFF" , "-DLMDB_DIR=/app"],
            "name": "baloo",
            "buildsystem": "cmake-ninja",
            "sources": [ { "type": "git", "url": "https://invent.kde.org/kde/baloo.git", "tag": "v5.85.0" } ]
        },
        {
            "name": "kdecoration",
            "buildsystem": "cmake-ninja",
            "builddir": true,
            "sources": [ { "type": "git", "url": "https://invent.kde.org/kde/kdecoration.git", "branch": "master" } ]
        },
        {
            "name": "breeze",
            "buildsystem": "cmake-ninja",
            "builddir": true,
            "sources": [ { "type": "git", "url": "https://invent.kde.org/kde/breeze.git", "branch": "master" } ]
        },
        {
            "name": "kscreenlocker",
            "buildsystem": "cmake-ninja",
            "builddir": true,
            "sources": [ { "type": "git", "url": "https://invent.kde.org/kde/kscreenlocker.git", "branch": "master" } ]
        },
        {
            "name": "libxkbcommon",
            "config-opts": [ "--disable-static", "--enable-x11" ],
            "sources": [
                 {
                     "type": "archive",
                     "url": "https://xkbcommon.org/download/libxkbcommon-0.7.0.tar.xz",
                     "sha256": "09351592312d67b438655f54da5b67853026662c4a57e6be4d225f04a9989798"
                 }
            ]
        },
        {
            "name": "mtdev",
            "config-opts": [ "--disable-static" ],
            "sources": [
                 {
                     "type": "archive",
                     "url": "http://bitmath.org/code/mtdev/mtdev-1.1.5.tar.bz2",
                     "sha256": "6677d5708a7948840de734d8b4675d5980d4561171c5a8e89e54adf7a13eba7f"
                 }
            ]
        },
        {
            "name": "libinput",
            "config-opts": [ "--disable-static", "--enable-x11" ],
            "sources": [
                 {
                     "type": "archive",
                     "url": "https://freedesktop.org/software/libinput/libinput-1.5.4.tar.xz",
                     "sha256": "6f9ad1ede468bd54ec4469b8a4eb93a6f62f7fe6480c7a43e36c5d58cc2822b7"
                 }
            ]
        },
        {
            "name": "kwin",
            "buildsystem": "cmake-ninja",
            "builddir": true,
            "sources": [ { "type": "git", "url": "https://invent.kde.org/kde/kwin.git", "branch": "master" } ]
        },
        {
            "name": "plasma-workspace",
            "buildsystem": "cmake-ninja",
            "builddir": true,
            "sources": [ { "type": "git", "url": "https://invent.kde.org/kde/plasma-workspace.git", "branch": "master" } ]
        },
        {
            "name": "kpeople",
            "buildsystem": "cmake-ninja",
            "builddir": true,
            "sources": [ { "type": "git", "url": "https://invent.kde.org/kde/kpeople.git", "branch": "master" } ]
        },
        {
            "name": "kactivities-stats",
            "buildsystem": "cmake-ninja",
            "builddir": true,
            "sources": [ { "type": "git", "url": "https://invent.kde.org/kde/kactivities-stats.git", "branch": "master" } ]
        },
        {
            "name": "libxkbfile",
            "config-opts": [ "--disable-static", "--enable-x11" ],
            "sources": [
                 {
                     "type": "archive",
                     "url": "https://www.x.org/releases/individual/lib/libxkbfile-1.0.9.tar.gz",
                     "sha256": "95df50570f38e720fb79976f603761ae6eff761613eb56f258c3cb6bab4fd5e3"
                 }
            ]
        },
        {
            "name": "plasma-desktop",
            "buildsystem": "cmake-ninja",
            "builddir": true,
            "sources": [ { "type": "git", "url": "https://invent.kde.org/kde/plasma-desktop.git", "branch": "master" } ]
        },
        {
            "name": "purpose",
            "buildsystem": "cmake-ninja",
            "builddir": true,
            "sources": [ { "type": "git", "url": "https://invent.kde.org/frameworks/purpose.git", "tag": "v5.85.0" } ]
        },
        {
            "name": "kross",
            "buildsystem": "cmake-ninja",
            "builddir": true,
            "sources": [ { "type": "git", "url": "https://invent.kde.org/kde/kross.git", "tag": "v5.85.0" } ]
        },
        {
            "name": "kdeplasma-addons",
            "buildsystem": "cmake-ninja",
            "builddir": true,
            "sources": [ { "type": "git", "url": "https://invent.kde.org/kde/kdeplasma-addons.git", "branch": "master" } ]
        }
    ]
}
